Vending Machine/Vending Machine.sim/sim_1/behav/xsim/simulate.log
Time resolution is 1 ps
time=                   0 	 start=0 	 in=0 	 coins=000 	 done=0 	 product=0 	 change=000
time=                  20 	 start=1 	 in=0 	 coins=000 	 done=0 	 product=0 	 change=000
time=                  40 	 start=1 	 in=0 	 coins=010 	 done=0 	 product=0 	 change=000
time=                  55 	 start=1 	 in=0 	 coins=010 	 done=1 	 product=0 	 change=000
time=                  65 	 start=1 	 in=0 	 coins=010 	 done=0 	 product=0 	 change=000
time=                  70 	 start=1 	 in=1 	 coins=010 	 done=0 	 product=0 	 change=000
time=                  80 	 start=1 	 in=1 	 coins=101 	 done=0 	 product=0 	 change=000
time=                  90 	 start=0 	 in=1 	 coins=101 	 done=0 	 product=0 	 change=000
time=                 110 	 start=1 	 in=1 	 coins=101 	 done=0 	 product=0 	 change=000
time=                 115 	 start=1 	 in=1 	 coins=101 	 done=1 	 product=1 	 change=000
time=                 120 	 start=1 	 in=0 	 coins=101 	 done=1 	 product=1 	 change=000
time=                 125 	 start=1 	 in=0 	 coins=101 	 done=0 	 product=1 	 change=000
time=                 135 	 start=1 	 in=0 	 coins=101 	 done=0 	 product=0 	 change=000
time=                 175 	 start=1 	 in=0 	 coins=101 	 done=1 	 product=0 	 change=011
time=                 185 	 start=1 	 in=0 	 coins=101 	 done=0 	 product=0 	 change=011
$finish called at time : 190 ns : File "C:/Users/sidde/Desktop/Verilog/Vending Machine/Vending Machine.srcs/sim_1/new/vending_machine_tb.v" Line 74
