Vending Machine(improved)/vm_coin.sim/sim_1/behav/xsim/vm_add_coins.vcd
$date
   Thu Mar 20 19:21:57 2025
$end

$version
  2024.2.0
  $dumpfile ("vm_add_coins.vcd") 
$end

$timescale
  1ps
$end

$scope module vm_add_coins_tb $end
$var reg 1 ! clk $end
$var reg 1 " reset $end
$var reg 1 # in $end
$var reg 1 $ start $end
$var reg 3 % coins [2:0] $end
$var wire 1 & done $end
$var wire 1 ' product $end
$var wire 3 ( change [2:0] $end
$scope module uut $end
$var wire 1 ) clk $end
$var wire 1 * reset $end
$var wire 1 + in $end
$var wire 1 , start $end
$var wire 3 - coins [2:0] $end
$var reg 1 . done $end
$var reg 1 / product $end
$var reg 3 0 change [2:0] $end
$var reg 4 1 prv_state [3:0] $end
$var reg 4 2 nxt_state [3:0] $end
$var reg 3 3 total_coins [2:0] $end
$upscope $end
$upscope $end
$enddefinitions $end

#0
$dumpvars
0!
1"
0#
0$
b0 %
x&
x'
bx (
0)
1*
0+
0,
b0 -
x.
x/
bx 0
bx 1
b0 2
bx 3
$end

#5000
1!
0&
0'
b0 (
1)
0.
0/
b0 0
b0 1
b0 3

#10000
0!
0"
0)
0*

#15000
1!
1)

#20000
0!
0)

#25000
1!
1)

#30000
0!
0)

#35000
1!
1)

#40000
0!
1$
0)
1,
b1 2

#45000
1!
1)
b1 1
b10 2

#50000
0!
0$
0)
0,

#55000
1!
1)
b10 1

#60000
0!
b10 %
0)
b10 -
b100 2

#65000
1!
1&
1)
1.
b100 1
b1000 2
b10 3

#70000
0!
b0 %
0)
b0 -

#75000
1!
1)
1.
b1000 1
b0 2
b0 3

#80000
0!
0)

#85000
1!
0&
1)
0.
b0 1

#90000
0!
1$
0)
1,
b1 2

#95000
1!
1)
b1 1
b10 2

#100000
0!
1#
0$
0)
1+
0,
b11 2

#105000
1!
1)
b11 1

#110000
0!
b101 %
0)
b101 -
b101 2

#115000
1!
1&
1'
1)
1.
1/
b101 1
b1000 2
b101 3

#120000
0!
b0 %
0)
b0 -

#125000
1!
0'
1)
1.
0/
b1000 1
b0 2
b0 3

#130000
0!
0)

#135000
1!
0&
1)
0.
b0 1

#140000
0!
1$
0)
1,
b1 2

#145000
1!
1)
b1 1
b11 2

#150000
0!
0#
0$
0)
0+
0,
b10 2

#155000
1!
1)
b10 1

#160000
0!
b1 %
0)
b1 -

#165000
1!
1)
b100 2
b1 3

#170000
0!
b0 %
0)
b0 -
b10 2

#175000
1!
1)

#180000
0!
b1 %
0)
b1 -
b100 2

#185000
1!
1&
1)
1.
b100 1
b1000 2
b10 3

#190000
0!
b0 %
0)
b0 -

#195000
1!
1)
1.
b1000 1
b0 2
b0 3

#200000
0!
0)

#205000
1!
0&
1)
0.
b0 1

#210000
0!
1$
0)
1,
b1 2

#215000
1!
1)
b1 1
b10 2

#220000
0!
0$
0)
0,

#225000
1!
1)
b10 1

#230000
0!
b101 %
0)
b101 -
b110 2

#235000
1!
1&
b11 (
1)
1.
b11 0
b110 1
b1000 2
b101 3

#240000
0!
b0 %
0)
b0 -

#245000
1!
b0 (
1)
1.
b0 0
b1000 1
b0 2
b0 3

#250000
0!
0)

#255000
1!
0&
1)
0.
b0 1

#260000
0!
1$
0)
1,
b1 2

#265000
1!
1)
b1 1
b10 2

#270000
0!
1#
0$
0)
1+
0,
b11 2

#275000
1!
1)
b11 1

#280000
0!
b10 %
0)
b10 -

#285000
1!
1)
b10 3

#290000
0!
b0 %
0)
b0 -

#295000
1!
1)

#300000
0!
b10 %
0)
b10 -

#305000
1!
1)
b111 2
b100 3

#310000
0!
b0 %
0)
b0 -
b11 2

#315000
1!
1)

#320000
0!
b10 %
0)
b10 -
b111 2

#325000
1!
1&
1'
b1 (
1)
1.
1/
b1 0
b111 1
b1000 2
b110 3

#330000
0!
b0 %
0)
b0 -

#335000
1!
0'
b0 (
1)
1.
0/
b0 0
b1000 1
b0 2
b0 3

#340000
0!
0)

#345000
1!
0&
1)
0.
b0 1

#350000
0!
1$
0)
1,
b1 2

#355000
1!
1)
b1 1
b11 2

#360000
0!
0#
0$
0)
0+
0,
b10 2

#365000
1!
1)
b10 1

#370000
0!
b1 %
0)
b1 -

#375000
1!
1)
b100 2
b1 3

#380000
0!
1"
0)
1*

#385000
1!
1)
b0 1
b0 2
b0 3

#390000
0!
0"
b0 %
0)
0*
b0 -

